{
	"info": {
		"_postman_id": "bbad1643-bba1-c5f3-e65f-f017fd839d3c",
		"name": "BBVATechU",
		"description": "Colecciones del curso Practicioner de BBVA Tech\n",
		"schema": "https://schema.getpostman.com/json/collection/v2.1.0/collection.json"
	},
	"item": [
		{
			"name": "NeN Bank",
			"description": "",
			"item": [
				{
					"name": "GetUsers",
					"request": {
						"method": "GET",
						"header": [
							{
								"key": "x-access-token",
								"value": "{{x-access-token}}"
							}
						],
						"body": {
							"mode": "raw",
							"raw": "{\n        \"first_name\": \"Senén\",\n        \"last_name\": \"Alonso\",\n        \"email\": \"senen.alonso@bbva.com\",\n        \"country\": \"España\"\n    }"
						},
						"url": {
							"raw": "http://localhost:3000/nenbank/v1/user",
							"protocol": "http",
							"host": [
								"localhost"
							],
							"port": "3000",
							"path": [
								"nenbank",
								"v1",
								"user"
							]
						},
						"description": "GET USERS"
					},
					"response": []
				},
				{
					"name": "GetAccounts",
					"request": {
						"method": "GET",
						"header": [
							{
								"key": "x-access-token",
								"value": "{{x-access-token}}"
							}
						],
						"body": {
							"mode": "raw",
							"raw": "{\n        \"first_name\": \"Senén\",\n        \"last_name\": \"Alonso\",\n        \"email\": \"senen.alonso@bbva.com\",\n        \"country\": \"España\"\n    }"
						},
						"url": {
							"raw": "http://localhost:3000/nenbank/v1/account",
							"protocol": "http",
							"host": [
								"localhost"
							],
							"port": "3000",
							"path": [
								"nenbank",
								"v1",
								"account"
							]
						},
						"description": "GET USERS"
					},
					"response": []
				},
				{
					"name": "GetUser",
					"request": {
						"method": "GET",
						"header": [
							{
								"key": "x-access-token",
								"value": "{{x-access-token}}"
							}
						],
						"body": {
							"mode": "raw",
							"raw": "{\n        \"first_name\": \"Senén\",\n        \"last_name\": \"Alonso\",\n        \"email\": \"senen.alonso@bbva.com\",\n        \"country\": \"España\"\n    }"
						},
						"url": {
							"raw": "http://localhost:3000/nenbank/v1/user/5b16b82244e43c70933a10ad",
							"protocol": "http",
							"host": [
								"localhost"
							],
							"port": "3000",
							"path": [
								"nenbank",
								"v1",
								"user",
								"5b16b82244e43c70933a10ad"
							]
						},
						"description": "GET USERS"
					},
					"response": []
				},
				{
					"name": "GetAccount",
					"request": {
						"method": "GET",
						"header": [
							{
								"key": "x-access-token",
								"value": "{{x-access-token}}"
							}
						],
						"body": {
							"mode": "raw",
							"raw": "{\n        \"first_name\": \"Senén\",\n        \"last_name\": \"Alonso\",\n        \"email\": \"senen.alonso@bbva.com\",\n        \"country\": \"España\"\n    }"
						},
						"url": {
							"raw": "http://localhost:3000/nenbank/v1/account/5b16bba444e43c70933a10bf",
							"protocol": "http",
							"host": [
								"localhost"
							],
							"port": "3000",
							"path": [
								"nenbank",
								"v1",
								"account",
								"5b16bba444e43c70933a10bf"
							]
						},
						"description": "GET USERS"
					},
					"response": []
				},
				{
					"name": "GetMovements",
					"request": {
						"method": "GET",
						"header": [
							{
								"key": "x-access-token",
								"value": "{{x-access-token}}"
							}
						],
						"body": {
							"mode": "raw",
							"raw": "{\n        \"first_name\": \"Senén\",\n        \"last_name\": \"Alonso\",\n        \"email\": \"senen.alonso@bbva.com\",\n        \"country\": \"España\"\n    }"
						},
						"url": {
							"raw": "http://localhost:3000/nenbank/v1/account/5b16bba444e43c70933a10bf",
							"protocol": "http",
							"host": [
								"localhost"
							],
							"port": "3000",
							"path": [
								"nenbank",
								"v1",
								"account",
								"5b16bba444e43c70933a10bf"
							]
						},
						"description": "GET USERS"
					},
					"response": []
				},
				{
					"name": "GetAccountByIBAN",
					"request": {
						"method": "GET",
						"header": [
							{
								"key": "x-access-token",
								"value": "{{x-access-token}}"
							}
						],
						"body": {
							"mode": "raw",
							"raw": "{\n        \"first_name\": \"Senén\",\n        \"last_name\": \"Alonso\",\n        \"email\": \"senen.alonso@bbva.com\",\n        \"country\": \"España\"\n    }"
						},
						"url": {
							"raw": "http://localhost:3000/nenbank/v1/account/iban/ES7321002857747879388215",
							"protocol": "http",
							"host": [
								"localhost"
							],
							"port": "3000",
							"path": [
								"nenbank",
								"v1",
								"account",
								"iban",
								"ES7321002857747879388215"
							]
						},
						"description": "GET USERS"
					},
					"response": []
				},
				{
					"name": "dropUser",
					"request": {
						"method": "DELETE",
						"header": [
							{
								"key": "x-access-token",
								"value": "{{x-access-token}}"
							}
						],
						"body": {
							"mode": "raw",
							"raw": ""
						},
						"url": {
							"raw": "http://localhost:3000/nenbank/v1/user/5b16d4e85d0e650196bda399",
							"protocol": "http",
							"host": [
								"localhost"
							],
							"port": "3000",
							"path": [
								"nenbank",
								"v1",
								"user",
								"5b16d4e85d0e650196bda399"
							]
						},
						"description": "GET USERS"
					},
					"response": []
				},
				{
					"name": "dropAccount",
					"request": {
						"method": "DELETE",
						"header": [
							{
								"key": "x-access-token",
								"value": "{{x-access-token}}"
							}
						],
						"body": {
							"mode": "raw",
							"raw": ""
						},
						"url": {
							"raw": "http://localhost:3000/nenbank/v1/account/5b16ea061f6e4f35aea57343",
							"protocol": "http",
							"host": [
								"localhost"
							],
							"port": "3000",
							"path": [
								"nenbank",
								"v1",
								"account",
								"5b16ea061f6e4f35aea57343"
							]
						},
						"description": "GET USERS"
					},
					"response": []
				},
				{
					"name": "updateUser",
					"request": {
						"method": "PUT",
						"header": [
							{
								"key": "x-access-token",
								"value": "{{x-access-token}}"
							}
						],
						"body": {
							"mode": "raw",
							"raw": "{\n    \"last_name\": \"Per3\",\n    \"password\": \"ahsg222\",\n    \"email\": \"pspa@jhasd.om\"\n}"
						},
						"url": {
							"raw": "http://localhost:3000/nenbank/v1/user/5b16d0325d0e650196bd97dc",
							"protocol": "http",
							"host": [
								"localhost"
							],
							"port": "3000",
							"path": [
								"nenbank",
								"v1",
								"user",
								"5b16d0325d0e650196bd97dc"
							]
						},
						"description": "GET USERS"
					},
					"response": []
				},
				{
					"name": "LOGIN",
					"request": {
						"method": "POST",
						"header": [
							{
								"key": "Content-Type",
								"value": "application/json"
							}
						],
						"body": {
							"mode": "raw",
							"raw": "{\n \"email\" : \"pacoperez@xyz.com\",\n \"password\" : \"paquito1\"\n}"
						},
						"url": {
							"raw": "http://localhost:3000/nenbank/v1/login",
							"protocol": "http",
							"host": [
								"localhost"
							],
							"port": "3000",
							"path": [
								"nenbank",
								"v1",
								"login"
							]
						},
						"description": "LOGIN"
					},
					"response": []
				},
				{
					"name": "LOGOUT",
					"request": {
						"method": "POST",
						"header": [
							{
								"key": "Content-Type",
								"value": "application/json"
							},
							{
								"key": "first_name",
								"value": "Senén"
							},
							{
								"key": "second_name",
								"value": "Alonso"
							},
							{
								"key": "email",
								"value": "senenalonso@gmail.com"
							},
							{
								"key": "country",
								"value": "España"
							}
						],
						"body": {
							"mode": "raw",
							"raw": "{\n \"id\" : \"5b16b82244e43c70933a10ad\"\n}"
						},
						"url": {
							"raw": "http://localhost:3000/nenbank/v1/logout",
							"protocol": "http",
							"host": [
								"localhost"
							],
							"port": "3000",
							"path": [
								"nenbank",
								"v1",
								"logout"
							]
						},
						"description": "LOGOUT"
					},
					"response": []
				},
				{
					"name": "REGISTRY",
					"request": {
						"method": "POST",
						"header": [
							{
								"key": "Content-Type",
								"value": "application/json"
							},
							{
								"key": "name",
								"value": "Paco"
							},
							{
								"key": "surname",
								"value": "Perez"
							},
							{
								"key": "email",
								"value": "pacoperez@abc.xy"
							},
							{
								"key": "password",
								"value": "12345678"
							}
						],
						"body": {
							"mode": "raw",
							"raw": "{\n\t\"first_name\": \"Paco\",\n    \"last_name\": \"Perez\",\n    \"email\": \"pacoperez2@xyz.com\",\n    \"password\": \"paquito1\"\n}"
						},
						"url": {
							"raw": "http://localhost:3000/nenbank/v1/registry",
							"protocol": "http",
							"host": [
								"localhost"
							],
							"port": "3000",
							"path": [
								"nenbank",
								"v1",
								"registry"
							]
						},
						"description": "LOGOUT"
					},
					"response": []
				},
				{
					"name": "createUser",
					"request": {
						"method": "POST",
						"header": [
							{
								"key": "x-access-token",
								"value": "{{x-access-token}}"
							}
						],
						"body": {
							"mode": "raw",
							"raw": "{\n\t\"first_name\": \"Paco\",\n    \"last_name\": \"Perez\",\n    \"email\": \"pacoperez@xyz.com\",\n    \"password\": \"paquito1\"\n}"
						},
						"url": {
							"raw": "http://localhost:3000/nenbank/v1/user",
							"protocol": "http",
							"host": [
								"localhost"
							],
							"port": "3000",
							"path": [
								"nenbank",
								"v1",
								"user"
							]
						},
						"description": "LOGOUT"
					},
					"response": []
				},
				{
					"name": "createAccount",
					"request": {
						"method": "POST",
						"header": [
							{
								"key": "x-access-token",
								"value": "{{x-access-token}}"
							}
						],
						"body": {
							"mode": "raw",
							"raw": "{\n\t\"iban\": \"ES3701826778221926558816\",\n    \"iduser\": \"5b16b82244e43c70933a10ad\"\n}"
						},
						"url": {
							"raw": "http://localhost:3000/nenbank/v1/account",
							"protocol": "http",
							"host": [
								"localhost"
							],
							"port": "3000",
							"path": [
								"nenbank",
								"v1",
								"account"
							]
						},
						"description": "LOGOUT"
					},
					"response": []
				},
				{
					"name": "createMovement",
					"request": {
						"method": "POST",
						"header": [
							{
								"key": "x-access-token",
								"value": "{{x-access-token}}"
							}
						],
						"body": {
							"mode": "raw",
							"raw": "{\n            \"amount\" : 60,\n            \"category\" : null\n}"
						},
						"url": {
							"raw": "http://localhost:3000/nenbank/v1/account/iban/ES7321002857747879388215/movement",
							"protocol": "http",
							"host": [
								"localhost"
							],
							"port": "3000",
							"path": [
								"nenbank",
								"v1",
								"account",
								"iban",
								"ES7321002857747879388215",
								"movement"
							]
						}
					},
					"response": []
				}
			]
		}
	]
}
